…
    ## Warning: NAs introduced by coercion

    ## Warning: NAs introduced by coercion

    ## Warning: NAs introduced by coercion

    ## Warning: NAs introduced by coercion

    ## Warning: NAs introduced by coercion

``` r
ssdata
```

    ## # A tibble: 252 x 15
    ##    innings score overs conceded wickets catches stumpings opposition ground
    ##      <dbl> <int> <chr>    <int>   <int>   <int>     <int> <chr>      <chr> 
    ##  1       1     1 <NA>        NA      NA      NA        NA Pakistan   Lord's
    ##  2       2    NA DNB         NA      NA       1         0 Pakistan   Lord's
    ##  3       3    12 <NA>        NA      NA      NA        NA Pakistan   Lord's
    ##  4       4    NA 21          51       3       0         0 Pakistan   Lord's
    ##  5       1    10 <NA>        NA      NA      NA        NA Pakistan   Leeds 
    ##  6       2    NA 1            7       0       0         0 Pakistan   Leeds 
    ##  7       3    77 <NA>        NA      NA      NA        NA Pakistan   Leeds 
    ##  8       4    NA 9           24       0       0         0 Pakistan   Leeds 
    ##  9       1     7 <NA>        NA      NA      NA        NA England    Perth 
    ## 10       2    NA DNB         NA      NA       0         0 England    Perth 
    ## # ... with 242 more rows, and 6 more variables: start_date <date>,
    ## #   test_no <chr>, not_out <lgl>, inningstype <chr>, oversi <int>,
    ## #   year <dbl>

Separate out the batting data

``` r
ss_bat <- ssdata %>%
  filter(inningstype == "bat") %>%
  filter(!is.na(score))

ss_bat
```

    ## # A tibble: 121 x 15
    ##    innings score overs conceded wickets catches stumpings opposition ground
    ##      <dbl> <int> <chr>    <int>   <int>   <int>     <int> <chr>      <chr> 
    ##  1       1     1 <NA>        NA      NA      NA        NA Pakistan   Lord's
    ##  2       3    12 <NA>        NA      NA      NA        NA Pakistan   Lord's
    ##  3       1    10 <NA>        NA      NA      NA        NA Pakistan   Leeds 
    ##  4       3    77 <NA>        NA      NA      NA        NA Pakistan   Leeds 
    ##  5       1     7 <NA>        NA      NA      NA        NA England    Perth 
    ##  6       3    36 <NA>        NA      NA      NA        NA England    Perth 
    ##  7       1     6 <NA>        NA      NA      NA        NA England    Melbo~
    ##  8       3    38 <NA>        NA      NA      NA        NA England    Melbo~
    ##  9       1    18 <NA>        NA      NA      NA        NA England    Sydney
    ## 10       3    54 <NA>        NA      NA      NA        NA England    Sydney
    ## # ... with 111 more rows, and 6 more variables: start_date <date>,
    ## #   test_no <chr>, not_out <lgl>, inningstype <chr>, oversi <int>,
    ## #   year <dbl>
…
This is predicts that Steve Smith will have an average in each year higher than the Don's career average every year from around 2020.

*Oh my gosh it's already higher than that this year, he's even better than these models predict.*

**Ahhhh he's going to average over 100 each year until he retires at 41 and might get as high as 250!!!**

The facts don't lie.

And here are the predicted yearly averages for the linear model

``` r
ss_lin_preds
```

    ## # A tibble: 21 x 2
    ##     year   avg
    ##    <int> <dbl>
    ##  1  2010  37.7
    ##  2  2011  44.2
    ##  3  2012  50.6
    ##  4  2013  57.1
    ##  5  2014  63.5
    ##  6  2015  69.9
    ##  7  2016  76.4
    ##  8  2017  82.8
    ##  9  2018  89.2
    ## 10  2019  95.7
    ## # ... with 11 more rows

... and the exponential model

``` r
ss_exp_preds
```

    ## # A tibble: 21 x 2
    ##     year   avg
    ##    <int> <dbl>
    ##  1  2010  38.5
    ##  2  2011  42.2
    ##  3  2012  46.3
    ##  4  2013  50.8
    ##  5  2014  55.7
    ##  6  2015  61.1
    ##  7  2016  67.1
    ##  8  2017  73.6
    ##  9  2018  80.8
    ## 10  2019  88.6
    ## # ... with 11 more rows
…
